<svg width="91" height="91" viewBox="0 0 91 91" fill="none" xmlns="http://www.w3.org/2000/svg">
<g filter="url(#filter0_d)">
<path d="M11.0706 15.1717L15.6179 23.1306C15.7713 23.3995 16.028 23.5941 16.3282 23.6694L20.5706 24.7302L35.1211 39.2836L36.7288 37.676L21.9506 22.8953C21.8052 22.7494 21.6228 22.646 21.4231 22.596L17.3467 21.5731L13.4752 14.7929L16.7944 11.473L23.5761 15.349L24.5993 19.4262C24.6489 19.6264 24.7527 19.8093 24.8981 19.9547L39.6763 34.7359L41.2836 33.1278L26.7331 18.5745L25.6725 14.3336C25.5972 14.0328 25.4027 13.7756 25.1338 13.6217L17.176 9.07398C16.7323 8.82141 16.1739 8.89625 15.8119 9.25686L11.2651 13.805C10.8994 14.1647 10.8199 14.7241 11.0706 15.1717Z" fill="#FF5405"/>
</g>
<g filter="url(#filter1_d)">
<path d="M59.8358 32.3784L34.4807 56.1492L32.8507 54.6211L58.2063 30.8507L59.8358 32.3784Z" fill="#FF5405"/>
</g>
<g filter="url(#filter2_d)">
<path d="M29.4434 58.3812C29.2472 58.0426 28.8948 57.8358 28.5139 57.8358H22.0085C21.6281 57.8358 21.2752 58.0426 21.0794 58.3812L17.8265 64.003C17.62 64.3591 17.62 64.8046 17.8265 65.1612L21.0794 70.783C21.2752 71.1211 21.6281 71.3283 22.0085 71.3283H28.5139C28.8948 71.3283 29.2472 71.1211 29.4434 70.783L32.6959 65.1612C32.9024 64.8046 32.9024 64.3591 32.6959 64.003L29.4434 58.3812ZM27.9006 69.0794H22.6223L20.0201 64.5821L22.6223 60.0843H27.9006L30.5027 64.5821L27.9006 69.0794Z" fill="#FF5405"/>
</g>
<g filter="url(#filter3_d)">
<path d="M66.2211 36.5747C73.8296 36.6003 80.0188 30.453 80.0444 22.8448C80.0482 21.6866 79.906 20.5332 79.6212 19.4105C79.4676 18.7931 78.8426 18.4173 78.2251 18.5708C78.0222 18.6215 77.8374 18.7262 77.6896 18.8736L70.5185 26.0397L64.8288 24.1437L62.9313 18.4557L70.1024 11.2834C70.5521 10.8332 70.5516 10.1039 70.1014 9.65418C69.9531 9.50585 69.7664 9.40065 69.5621 9.35042C62.1835 7.48189 54.6878 11.9483 52.8192 19.3262C52.5353 20.4455 52.3936 21.5961 52.3974 22.751C52.4003 23.658 52.4936 24.5622 52.6775 25.4502L27.4484 50.678C26.5603 50.4946 25.6561 50.4012 24.7495 50.3979C17.1145 50.3979 10.9254 56.5869 10.9254 64.2217C10.9254 71.856 17.1145 78.0449 24.7495 78.0449C32.3841 78.0449 38.5733 71.856 38.5733 64.2217C38.5704 63.3146 38.4766 62.4105 38.2932 61.5224L44.333 55.4827L46.9746 58.1242C47.4248 58.5739 48.1536 58.5739 48.6039 58.1242L49.1796 57.5479C49.6848 57.0461 50.5014 57.0461 51.0065 57.5479C51.5112 58.0512 51.5122 58.8682 51.0089 59.3729C51.0084 59.3733 51.0075 59.3743 51.0065 59.3752L50.4307 59.951C49.981 60.4007 49.981 61.13 50.4307 61.5797L64.1729 75.3215C67.7874 78.969 73.6742 78.9955 77.3218 75.3812C80.9689 71.7669 80.9955 65.8798 77.381 62.2328C77.3616 62.2129 77.3417 62.193 77.3218 62.173L63.5796 48.4318C63.1299 47.9821 62.4005 47.9821 61.9508 48.4318L61.375 49.0076C60.8694 49.5099 60.0533 49.5099 59.5477 49.0076C59.0434 48.5043 59.042 47.6873 59.5453 47.1831C59.5462 47.1821 59.5472 47.1817 59.5477 47.1807L60.1239 46.6045C60.5737 46.1548 60.5737 45.4254 60.1239 44.9757L57.4824 42.3343L63.5223 36.2946C64.4104 36.478 65.3146 36.5718 66.2211 36.5747ZM70.7474 75.7413C69.9105 75.7399 69.0807 75.5888 68.2973 75.2945L77.2943 66.2973C78.652 69.9088 76.8252 73.9368 73.2136 75.2945C72.4255 75.5906 71.59 75.7423 70.7474 75.7413ZM57.6966 45.8017C56.4209 47.3234 56.6208 49.5914 58.1425 50.8666C59.4799 51.9873 61.429 51.9864 62.765 50.8633L75.693 63.8023C75.8333 63.943 75.9645 64.0913 76.0916 64.242L66.242 74.0913C66.0908 73.9647 65.9425 73.8335 65.8017 73.6927L52.8638 60.7542C54.1395 59.2326 53.9395 56.9646 52.4178 55.6893C51.0805 54.5681 49.1308 54.5695 47.7949 55.6922L45.9519 53.8492L55.8531 43.963L57.6966 45.8017ZM62.3484 34.2157L36.2151 60.3429C35.9284 60.6291 35.8132 61.0447 35.9109 61.4376C37.4913 67.6441 33.7409 73.9567 27.5337 75.5366C21.327 77.117 15.0142 73.3667 13.4337 67.1597C11.8537 60.9533 15.6042 54.6406 21.8114 53.0602C23.689 52.5825 25.6561 52.5825 27.5337 53.0602C27.9266 53.1564 28.3412 53.0413 28.6284 52.7565L54.7556 26.6288C55.0418 26.3425 55.157 25.9269 55.0584 25.5346C53.4888 19.4006 57.189 13.1557 63.3232 11.5857C64.4824 11.2896 65.6814 11.1758 66.8756 11.2502L60.7988 17.3292C60.4902 17.6373 60.3822 18.0936 60.5201 18.5073L62.8237 25.4194C62.9389 25.763 63.209 26.0331 63.5531 26.1473L70.4654 28.4513C70.8786 28.5892 71.335 28.4817 71.6435 28.1736L77.7204 22.097C77.7341 22.3169 77.7412 22.5344 77.7412 22.751C77.7734 29.0807 72.6686 34.238 66.3387 34.2707C65.3601 34.2754 64.3848 34.155 63.437 33.9124C63.0441 33.8143 62.6285 33.929 62.3423 34.2152H62.3484V34.2157Z" fill="#FF5405"/>
</g>
<g filter="url(#filter4_d)">
<path d="M69.9552 66.4924L68.4924 67.9552L58.1493 57.6121L59.6117 56.1493L69.9552 66.4924Z" fill="#FF5405"/>
</g>
<defs>
<filter id="filter0_d" x="0.925369" y="0.925369" width="50.3582" height="50.3582" filterUnits="userSpaceOnUse" color-interpolation-filters="sRGB">
<feFlood flood-opacity="0" result="BackgroundImageFix"/>
<feColorMatrix in="SourceAlpha" type="matrix" values="0 0 0 0 0 0 0 0 0 0 0 0 0 0 0 0 0 0 127 0"/>
<feOffset dy="2"/>
<feGaussianBlur stdDeviation="5"/>
<feColorMatrix type="matrix" values="0 0 0 0 0 0 0 0 0 0 0 0 0 0 0 0 0 0 0.25 0"/>
<feBlend mode="normal" in2="BackgroundImageFix" result="effect1_dropShadow"/>
<feBlend mode="normal" in="SourceGraphic" in2="effect1_dropShadow" result="shape"/>
</filter>
<filter id="filter1_d" x="22.8507" y="22.8507" width="46.9851" height="45.2985" filterUnits="userSpaceOnUse" color-interpolation-filters="sRGB">
<feFlood flood-opacity="0" result="BackgroundImageFix"/>
<feColorMatrix in="SourceAlpha" type="matrix" values="0 0 0 0 0 0 0 0 0 0 0 0 0 0 0 0 0 0 127 0"/>
<feOffset dy="2"/>
<feGaussianBlur stdDeviation="5"/>
<feColorMatrix type="matrix" values="0 0 0 0 0 0 0 0 0 0 0 0 0 0 0 0 0 0 0.25 0"/>
<feBlend mode="normal" in2="BackgroundImageFix" result="effect1_dropShadow"/>
<feBlend mode="normal" in="SourceGraphic" in2="effect1_dropShadow" result="shape"/>
</filter>
<filter id="filter2_d" x="7.67165" y="49.8358" width="35.1791" height="33.4925" filterUnits="userSpaceOnUse" color-interpolation-filters="sRGB">
<feFlood flood-opacity="0" result="BackgroundImageFix"/>
<feColorMatrix in="SourceAlpha" type="matrix" values="0 0 0 0 0 0 0 0 0 0 0 0 0 0 0 0 0 0 127 0"/>
<feOffset dy="2"/>
<feGaussianBlur stdDeviation="5"/>
<feColorMatrix type="matrix" values="0 0 0 0 0 0 0 0 0 0 0 0 0 0 0 0 0 0 0.25 0"/>
<feBlend mode="normal" in2="BackgroundImageFix" result="effect1_dropShadow"/>
<feBlend mode="normal" in="SourceGraphic" in2="effect1_dropShadow" result="shape"/>
</filter>
<filter id="filter3_d" x="0.925369" y="0.925369" width="89.1492" height="89.1492" filterUnits="userSpaceOnUse" color-interpolation-filters="sRGB">
<feFlood flood-opacity="0" result="BackgroundImageFix"/>
<feColorMatrix in="SourceAlpha" type="matrix" values="0 0 0 0 0 0 0 0 0 0 0 0 0 0 0 0 0 0 127 0"/>
<feOffset dy="2"/>
<feGaussianBlur stdDeviation="5"/>
<feColorMatrix type="matrix" values="0 0 0 0 0 0 0 0 0 0 0 0 0 0 0 0 0 0 0.25 0"/>
<feBlend mode="normal" in2="BackgroundImageFix" result="effect1_dropShadow"/>
<feBlend mode="normal" in="SourceGraphic" in2="effect1_dropShadow" result="shape"/>
</filter>
<filter id="filter4_d" x="48.1493" y="48.1493" width="31.806" height="31.806" filterUnits="userSpaceOnUse" color-interpolation-filters="sRGB">
<feFlood flood-opacity="0" result="BackgroundImageFix"/>
<feColorMatrix in="SourceAlpha" type="matrix" values="0 0 0 0 0 0 0 0 0 0 0 0 0 0 0 0 0 0 127 0"/>
<feOffset dy="2"/>
<feGaussianBlur stdDeviation="5"/>
<feColorMatrix type="matrix" values="0 0 0 0 0 0 0 0 0 0 0 0 0 0 0 0 0 0 0.25 0"/>
<feBlend mode="normal" in2="BackgroundImageFix" result="effect1_dropShadow"/>
<feBlend mode="normal" in="SourceGraphic" in2="effect1_dropShadow" result="shape"/>
</filter>
</defs>
</svg>
