<svg id="Group_1" data-name="Group 1" xmlns="http://www.w3.org/2000/svg" width="140.093" height="46.362" viewBox="0 0 140.093 46.362">
  <path id="Path_1" data-name="Path 1" d="M54.6,0H34.48L21.653,30.122H6.825L0,46.362H29.3c2.354,0,6.476-2.235,7.767-5.061Z" fill="#ff5405"/>
  <path id="Path_2" data-name="Path 2" d="M95,17.178c.469-1.059.734-2,2.088-2h25.183L128.683,0H91.438C87.906,0,81.081,3.175,78.259,9.412L69.35,30.122l-15.372.006L66.844,0H46.722L26.836,46.362H64.493l3.593-8.412c.684,4.863,4.4,8.412,10.407,8.412h30.478L120.8,18.474H98.232l-3.822,9.061H99.44L98.5,30.122H91.023c-1.354,0-1-1.115-.762-1.764Z" transform="translate(11.411)" fill="#ff5405"/>
  <path id="Path_3" data-name="Path 3" d="M89.553,28.957h1.673a.932.932,0,0,1,1.04.935.789.789,0,0,1-.51.788c.271.121.416.222.416.839,0,.486,0,.6.148.658v.088h-.762a2.078,2.078,0,0,1-.074-.667c0-.452-.029-.629-.54-.629h-.715v1.3h-.676Zm1.486,1.457c.359,0,.537-.124.537-.452,0-.174-.08-.435-.486-.435h-.862v.886Z" transform="translate(38.078 12.313)" fill="#ff5405"/>
  <path id="Path_4" data-name="Path 4" d="M91.429,34.528a3.387,3.387,0,1,0-2.4-.992,3.375,3.375,0,0,0,2.4.992m-2.781-3.392a2.778,2.778,0,1,1,.814,1.967,2.774,2.774,0,0,1-.814-1.967" transform="translate(37.434 11.796)" fill="#ff5405"/>
  <path id="Path_5" data-name="Path 5" d="M54.6,0H34.48L21.653,30.122H6.825L0,46.362H29.3c2.354,0,6.476-2.235,7.767-5.061Z" fill="#ff5405"/>
  <path id="Path_6" data-name="Path 6" d="M95,17.178c.469-1.059.734-2,2.088-2h25.183L128.683,0H91.438C87.906,0,81.081,3.175,78.259,9.412L69.35,30.122l-15.372.006L66.844,0H46.722L26.836,46.362H64.493l3.593-8.412c.684,4.863,4.4,8.412,10.407,8.412h30.478L120.8,18.474H98.232l-3.822,9.061H99.44L98.5,30.122H91.023c-1.354,0-1-1.115-.762-1.764Z" transform="translate(11.411)" fill="#ff5405"/>
  <path id="Path_7" data-name="Path 7" d="M89.553,28.957h1.673a.932.932,0,0,1,1.04.935.789.789,0,0,1-.51.788c.271.121.416.222.416.839,0,.486,0,.6.148.658v.088h-.762a2.078,2.078,0,0,1-.074-.667c0-.452-.029-.629-.54-.629h-.715v1.3h-.676Zm1.486,1.457c.359,0,.537-.124.537-.452,0-.174-.08-.435-.486-.435h-.862v.886Z" transform="translate(38.078 12.313)" fill="#ff5405"/>
  <path id="Path_8" data-name="Path 8" d="M91.429,34.528a3.387,3.387,0,1,0-2.4-.992,3.375,3.375,0,0,0,2.4.992m-2.781-3.392a2.778,2.778,0,1,1,.814,1.967,2.774,2.774,0,0,1-.814-1.967" transform="translate(37.434 11.796)" fill="#ff5405"/>
</svg>
